^C:\USERS\USER\SOURCE\REPOS\HELLOWORLD\DEBUG\HELLOWORLD.OBJ
C:\USERS\USER\SOURCE\REPOS\HELLOWORLD\DEBUG\HELLOWORLD.EXE
C:\USERS\USER\SOURCE\REPOS\HELLOWORLD\DEBUG\HELLOWORLD.ILK
C:\USERS\USER\SOURCE\REPOS\HELLOWORLD\DEBUG\HELLOWORLD.PDB
